


diplomatic_front = {
	gfx = GFX_federal_constitution

	can_pick = {
		has_reform = adventurer_reform

		federation_size = 3
		all_federation_members = {
			trust = { who = ROOT value = 75 }
		}
	}

	modifier = {
		# Can do offensive wars
		diplomats = 1
	}

	ai_chance = {
		factor = 1
	}
}

looking_for_group = {
	gfx = GFX_unified_warbands
	
	can_pick = {
		has_reform = adventurer_reform

		federation_size = 3
		all_federation_members = {
			trust = { who = ROOT value = 75 }
		}
	}

	modifier = {
		monthly_militarized_society = 0.1
	}

	ai_chance = {
		factor = 1
	}
}
