
A45_west_expansion = {
	slot = 1
	generic = no
	ai = yes
	potential = {
		tag = A45
	}
	has_country_shield = yes
	
	A45_remove_wexonard_emperor = {
		icon = mission_crowning
		required_missions = { }
		position = 1
		
		trigger = {
			A30 = {
				is_emperor = no
			}
		}
		
		effect = {
			damerian_dales_area = {
				limit = {
					NOT = { is_core = ROOT }
					NOT = { owned_by = ROOT }
				}
				add_permanent_claim = ROOT
			}
			the_commons_area = {
				limit = {
					NOT = { is_core = ROOT }
					NOT = { owned_by = ROOT }
				}
				add_permanent_claim = ROOT
			}
		}
	}
	
	A45_reclaim_damerian_dales = {
		icon = mission_rb_central_belt_coal_mining
		required_missions = { A45_remove_wexonard_emperor }
		position = 3
		
		provinces_to_highlight = {
			OR = {
				area = the_commons_area
				area = damerian_dales_area
			}
			NOT = {
				country_or_non_sovereign_subject_holds = ROOT
			}
		}
		
		trigger = {
			damerian_dales_area = {
				type = all
				country_or_non_sovereign_subject_holds = ROOT
			}
			custom_trigger_tooltip = {
				tooltip = istralore_silvelar_tooltip
				OR = {
					the_commons_area = {
						type = all
						country_or_non_sovereign_subject_holds = ROOT
					}
					AND = {
						owns_or_non_sovereign_subject_of = 281
						owns_or_non_sovereign_subject_of = 910
						328 = {
							owner = { has_reform = free_city }
						}
					}
				}
			}
		}

		effect = {
			if = {
				limit = { 
					5 = {
						NOT = { is_core = ROOT }
						NOT = { owned_by = ROOT }
					}
				}
				5 = {
					add_permanent_claim = ROOT
				}
			}
			if = {
				limit = { 
					2 = {
						NOT = { is_core = ROOT }
						NOT = { owned_by = ROOT }
					}
				}
				2 = {
					add_permanent_claim = ROOT
				}
			}
		}
	}

	A45_conquer_east_damesear = {
		icon = expand_the_terraferma
		required_missions = { A45_reclaim_damerian_dales }
		position = 4
		
		provinces_to_highlight = {
			OR = {
				province_id = 5
				province_id = 2
			}
			NOT = {
				country_or_non_sovereign_subject_holds = ROOT
			}
		}
		
		trigger = {
			owns_or_non_sovereign_subject_of = 2
			owns_or_non_sovereign_subject_of = 5
		}

		effect = {
			west_damesear_area = {
				limit = {
					NOT = { is_core = ROOT }
					NOT = { owned_by = ROOT }
				}
				add_permanent_claim = ROOT
			}
		}
	}

	A45_west_damesear = {
		icon = mission_magic_tower
		required_missions = { A45_conquer_east_damesear }
		position = 5
		
		provinces_to_highlight = {
			OR = {
				province_id = 6
				province_id = 3
				province_id = 168
			}
			NOT = {
				country_or_non_sovereign_subject_holds = ROOT
			}
		}
		
		trigger = {
			custom_trigger_tooltip = {
				tooltip = istralore_west_damesear_tooltip
				OR = {
					AND = {
						owns_or_non_sovereign_subject_of = 3
						owns_or_non_sovereign_subject_of = 6
						owns_or_non_sovereign_subject_of = 168
					}
					AND = {
						alliance_with = A85
						A85 = { preferred_emperor = A45 }
						3 = { owned_by = A85 }
						6 = { owned_by = A85 }
						168 = { owned_by = A85 }
					}
				}
			}
		}

		effect = {
			wesdam_area = {
				limit = {
					NOT = { is_core = ROOT }
					NOT = { owned_by = ROOT }
				}
				add_permanent_claim = ROOT
			}
			windtower_area = {
				limit = {
					NOT = { is_core = ROOT }
					NOT = { owned_by = ROOT }
				}
				add_permanent_claim = ROOT
			}
			if = {
				limit = { 
					11 = {
						NOT = { is_core = ROOT }
						NOT = { owned_by = ROOT }
					}
				}
				11 = {
					add_permanent_claim = ROOT
				}
			}
		}
	}
	
	A45_traitor_wesdam = {
		icon = mission_invade_island
		required_missions = { A45_west_damesear }
		position = 6
		
		provinces_to_highlight = {
			OR = {
				province_id = 11
				area = wesdam_area
			}
			NOT = {
				country_or_non_sovereign_subject_holds = ROOT
			}
		}
		
		trigger = {
			owns_or_non_sovereign_subject_of = 11
			wesdam_area = {
				type = all
				country_or_non_sovereign_subject_holds = ROOT
			}
		}

		effect = {
			eastern_winebay_area = {
				limit = {
					NOT = { is_core = ROOT }
					NOT = { owned_by = ROOT }
				}
				add_claim = ROOT
			}
			carneteria_area = {
				limit = {
					NOT = { is_core = ROOT }
					NOT = { owned_by = ROOT }
				}
				add_claim = ROOT
			}
			tretunica_area = {
				limit = {
					NOT = { is_core = ROOT }
					NOT = { owned_by = ROOT }
				}
				add_claim = ROOT
			}
		}
	}

	A45_secure_west_dameshead = {
		icon = french_indochina
		required_missions = { A45_traitor_wesdam A45_damerias_legacy }
		position = 7
		
		provinces_to_highlight = {
			OR = {
				region = west_dameshead_region
				area = eastern_winebay_area
			}
		}
		
		trigger = {
			OR = {
				hidden_trigger = {
					west_dameshead_region = {
						type = all
						OR = {
							owner = {
								is_part_of_hre = yes
							}
							country_or_non_sovereign_subject_holds = ROOT
						}
					}
					eastern_winebay_area = {
						type = all
						OR = {
							owner = {
								is_part_of_hre = yes
							}
							country_or_non_sovereign_subject_holds = ROOT
						}
					}
				}
				AND = {
					west_dameshead_region = {
						type = all
						owner = { is_part_of_hre = yes }
					}
					eastern_winebay_area = {
						type = all
						owner = { is_part_of_hre = yes }
					}
				}
			}
		#	tretunica_area = {
		#		type = all
		#		owner = { is_part_of_hre = yes }
		#	}
		#	carneteria_area = {
		#		type = all
		#		owner = { is_part_of_hre = yes }
		#	}
		#	eastern_winebay_area = {
		#		type = all
		#		owner = { is_part_of_hre = yes }
		#	}
		}

		effect = {
			add_imperial_influence = 15
			add_adm_power = 50
		}
	}

}

A45_east_expansion = {
	slot = 2
	generic = no
	ai = yes
	potential = {
		tag = A45
	}
	has_country_shield = yes
	
	A45_historical_ally = {
		icon = mission_alliances
		required_missions = { }
		position = 1
		
		trigger = {
			OR = {
				alliance_with = A31
				hidden_trigger = {
					A31 = { ai = no }
				}
			}
		}
		
		effect = {
			heartlands_area = {
				limit = {
					NOT = { is_core = ROOT }
					NOT = { owned_by = ROOT }
				}
				add_permanent_claim = ROOT
			}
		}
	}
	
	A45_traitorous_cestirande = {
		icon = mission_break_the_tatar_yoke
		required_missions = { A45_historical_ally }
		position = 2
		
		provinces_to_highlight = {
			OR = {
				area = heartlands_area
			}
			NOT = {
				country_or_non_sovereign_subject_holds = ROOT
			}
		}
		
		trigger = {
			heartlands_area = {
				type = all
				country_or_non_sovereign_subject_holds = ROOT
			}
		}

		effect = {
			middle_luna_area = {
				limit = {
					NOT = { is_core = ROOT }
					NOT = { owned_by = ROOT }
				}
				add_permanent_claim = ROOT
			}
			if = {
				limit = { 
					906 = {
						NOT = { is_core = ROOT }
						NOT = { owned_by = ROOT }
					}
				}
				906 = {
					add_permanent_claim = ROOT
				}
			}
		}
	}

	A45_retake_middle_luna = {
		icon = mission_unite_home_region
		required_missions = { A45_traitorous_cestirande }
		position = 3
		
		provinces_to_highlight = {
			OR = {
				area = middle_luna_area
				province_id = 906
			}
			NOT = {
				country_or_non_sovereign_subject_holds = ROOT
			}
		}
		
		trigger = {
			OR = {
				custom_trigger_tooltip = {
					tooltip = istralore_middle_luna_1_tooltip
					AND = {
						owns_or_non_sovereign_subject_of = 109
						owns_or_non_sovereign_subject_of = 284
						OR = {
							owns_or_non_sovereign_subject_of = 329
							329 = {
								owner = { has_reform = free_city }
							}
						}
						OR = {
							owns_or_non_sovereign_subject_of = 587
							587 = {
								owner = { has_reform = free_city }
							}
						}
					}
				}
				custom_trigger_tooltip = {
					tooltip = istralore_middle_luna_2_tooltip
					AND = {
						owns_or_non_sovereign_subject_of = 109
						owns_or_non_sovereign_subject_of = 906
						OR = {
							owns_or_non_sovereign_subject_of = 329
							329 = {
								owner = { has_reform = free_city }
							}
						}
						OR = {
							owns_or_non_sovereign_subject_of = 587
							587 = {
								owner = { has_reform = free_city }
							}
						}
						A84 = {
							owns_core_province = 284 
						#	has_opinion = {
						#		who = ROOT
						#		value = 100
						#	}
						}
					}
				}
			}
		}

		effect = {
			upper_luna_area = {
				limit = {
					NOT = { is_core = ROOT }
					NOT = { owned_by = ROOT }
				}
				add_permanent_claim = ROOT
			}
			IF = {
				limit = { 
					NOT = { owns = 284 } 
					owns = 906
				}
				A84 = {
					country_event = {
						id = flavor_istralore.6
						tooltip = trade_with_galeinn_tooltip
					}
				}
			}
		}
	}

	A45_upper_luna = {
		icon = mission_pf_map_table
		required_missions = { A45_retake_middle_luna }
		position = 4
		
		provinces_to_highlight = {
			OR = {
				area = upper_luna_area
			}
			NOT = {
				country_or_non_sovereign_subject_holds = ROOT
			}
		}
		
		trigger = {
			OR = {
				upper_luna_area = {
					type = all
					country_or_non_sovereign_subject_holds = ROOT
				}
				custom_trigger_tooltip = {
					tooltip = istralore_magisterium_tooltip 
					AND = {
						owns_or_non_sovereign_subject_of = 298
						owns_or_non_sovereign_subject_of = 327
						OR = {
							A85 = { owns_core_province = 299 }
							owns_core_province = 299
						}
						alliance_with = A85
						A85 = { owns_core_province = 898 }
					}
				}
			}
		}

		effect = {
			wexhills_area = {
				limit = {
					NOT = { is_core = ROOT }
					NOT = { owned_by = ROOT }
				}
				add_permanent_claim = ROOT
			}
		}
	}
	
	A45_dismantle_wex = {
		icon = balance_of_power
		required_missions = { A45_upper_luna A45_conquer_east_damesear }
		position = 5
		
		provinces_to_highlight = {
			OR = {
				area = wexhills_area
			}
			NOT = {
				country_or_non_sovereign_subject_holds = ROOT
			}
		}
		
		trigger = {
			OR = {
				AND = {
					wexhills_area = {
						type = all
						country_or_non_sovereign_subject_holds = ROOT
					}
					is_emperor = yes
				}
				A30 = { exists = no }
			}
		}

		effect = {
			IF = {
				limit = {
					A30 = { exists = yes }
				}
				country_event = {
					id = flavor_istralore.3
				}
			}
			rotwall_area = {
				limit = {
					NOT = { is_core = ROOT }
					NOT = { owned_by = ROOT }
				}
				add_claim = ROOT
			}
			ashfields_area = {
				limit = {
					NOT = { is_core = ROOT }
					NOT = { owned_by = ROOT }
				}
				add_claim = ROOT
			}
			gisden_area = {
				limit = {
					NOT = { is_core = ROOT }
					NOT = { owned_by = ROOT }
				}
				add_claim = ROOT
			}
			eastborders_area = {
				limit = {
					NOT = { is_core = ROOT }
					NOT = { owned_by = ROOT }
				}
				add_claim = ROOT
			}
		}
	}

	A45_defend_the_borders = {
		icon = mission_unite_home_region
		required_missions = { A45_dismantle_wex A45_damerias_legacy }
		position = 7
		
		provinces_to_highlight = {
			OR = {
				region = the_borders_region
				area = rotwall_area
			}
		}
		
		trigger = {
			OR = {
				hidden_trigger = {
					AND = {
						the_borders_region = {
							type = all
							OR = {
								owner = {
									is_part_of_hre = yes
								}
								country_or_non_sovereign_subject_holds = ROOT
							}
						}
						rotwall_area = {
							type = all
							OR = {
								owner = {
									is_part_of_hre = yes
								}
								country_or_non_sovereign_subject_holds = ROOT
							}
						}
					}
				}
				AND = {
					the_borders_region = {
						type = all
						owner = { is_part_of_hre = yes }
					}
					rotwall_area = {
						type = all
						owner = { is_part_of_hre = yes }
					}
				}
			}
		#	ashfields_area = {
		#		type = all
		#		owner = { is_part_of_hre = yes }
		#	}
		#	gisden_area = {
		#		type = all
		#		owner = { is_part_of_hre = yes }
		#	}
		#	eastborders_area = {
		#		type = all
		#		owner = { is_part_of_hre = yes }
		#	}
		}

		effect = {
			add_country_modifier = {
				name = "istralore_defended_borders"
				duration = -1
			}
			add_mil_power = 50
		}
	}

	A45_protected_empire = {
		icon = mission_moon_throne
		required_missions = { A45_secure_west_dameshead A45_defend_the_borders A45_protect_the_damescrown }
		position = 8
		
		provinces_to_highlight = {
			AND = {
				is_part_of_hre = yes
				owner = {
					is_part_of_hre = no
				}
			}
		}
		
		trigger = {
			is_emperor = yes
			NOT = { num_of_foreign_hre_provinces = 1 }			
		}

		effect = {
			add_imperial_influence = 10
			add_prestige = 25
			alenic_expanse_area = {
				limit = {
					NOT = { is_core = ROOT }
					NOT = { owned_by = ROOT }
				}
				add_permanent_claim = ROOT
			}
			south_alen_area = {
				limit = {
					NOT = { is_core = ROOT }
					NOT = { owned_by = ROOT }
				}
				add_permanent_claim = ROOT
			}
			upper_bloodwine_area = {
				limit = {
					NOT = { is_core = ROOT }
					NOT = { owned_by = ROOT }
				}
				add_permanent_claim = ROOT
			}
			lower_bloodwine_area = {
				limit = {
					NOT = { is_core = ROOT }
					NOT = { owned_by = ROOT }
				}
				add_permanent_claim = ROOT
			}
			south_ibevar_area = {
				limit = {
					NOT = { is_core = ROOT }
					NOT = { owned_by = ROOT }
				}
				add_permanent_claim = ROOT
			}
			north_ibevar_area = {
				limit = {
					NOT = { is_core = ROOT }
					NOT = { owned_by = ROOT }
				}
				add_permanent_claim = ROOT
			}
		}
	}

#	A45_vassalize_moonhaven = {
#		icon = mission_alliances
#		required_missions = { A45_protected_empire }
#		position = 9
#		
#		trigger = {
#			OR = {
#				AND = {
#					alliance_with = A31
#					imperial_infleunce = 20
#				}
#				A31 = { exists = no }
#			}
#		}
#		
#		effect = {
#			IF = {
#				limit = {
#					exists = A31
#				}
#				add_imperial_influence = -20
#				A31 = {
#					country_event = {
#						id = flavor_istralore.9
#					}
#				}
#			}
#		}
#	}

}

A45_corinite_emperor = {
	slot = 3
	generic = no
	ai = yes
	potential = {
		tag = A45
	}
	has_country_shield = yes

	A45_corinite_military = {
		icon = mission_landsknecht_soldier
		required_missions = { }
		position = 3
		
		trigger = {
			religion = corinite
		}

		effect = {
			add_country_modifier = {
				name = "army_enthusiasm"
				duration = 9125 #25 years
			}
		}
	}

	A45_corinite_league = {
		icon = king_of_poland
		required_missions = { A45_corinite_military }
		position = 4
		
		trigger = {
			if = {
				limit = {
					OR = {
						hre_religion_locked = yes
						is_in_league_war = yes
						AND = {
							has_global_flag = evangelical_union_happened
							hre_religion_treaty = yes
						}
					}
				}
				OR = {
					AND = {
						religion = corinite
						is_league_leader = yes
					}
					hre_religion_locked = yes
					hre_religion_treaty = yes
				}
			}
			else = {
				religion = corinite
				is_league_leader = yes
				hre_religion_treaty = no
			}
		}

		effect = {
			if = {
				limit = {
					NOT = {
						hre_religion_locked = yes
						hre_religion_treaty = yes
					}
				}
				add_legitimacy = 25
				add_prestige = 25
			}
		}
	}

	A45_corinite_empire = {
		icon = mission_european_church
		required_missions = { A45_corinite_league }
		position = 5
		
		trigger = {
			religion = corinite
			hre_religion = corinite
		}

		effect = {
			add_country_modifier = {
				name = "istralore_league_winner"
				duration = 10950 #30 years
			}	
		}
	}

	A45_damerias_legacy = {
		icon = mission_moon_throne
		required_missions = { A45_corinite_empire }
		position = 6
		
		trigger = {
			religion = corinite
			is_emperor = yes
		}

		effect = {
			vertesk_area = {
				limit = {
					NOT = { is_core = ROOT }
					NOT = { owned_by = ROOT }
				}
				add_claim = ROOT
			}
			derwing_area = {
				limit = {
					NOT = { is_core = ROOT }
					NOT = { owned_by = ROOT }
				}
				add_claim = ROOT
			}
			arbaran_area = {
				limit = {
					NOT = { is_core = ROOT }
					NOT = { owned_by = ROOT }
				}
				add_claim = ROOT
			}
			cestir_area = {
				limit = {
					NOT = { is_core = ROOT }
					NOT = { owned_by = ROOT }
				}
				add_claim = ROOT
			}
			dames_forehead_area = {
				limit = {
					NOT = { is_core = ROOT }
					NOT = { owned_by = ROOT }
				}
				add_claim = ROOT
			}
		}
	}

	A45_protect_the_damescrown = {
		icon = mission_the_chola_conquests
		required_missions = { A45_damerias_legacy }
		position = 7
		
		provinces_to_highlight = {
			OR = {
				region = damescrown_region
				area = arbaran_area
				area = cestir_area
			}
		}
		
		trigger = {
			OR = {
				hidden_trigger = {
					AND = {
						damescrown_region = {
							type = all
							OR = {
								owner = {
									is_part_of_hre = yes
								}
								country_or_non_sovereign_subject_holds = ROOT
							}
						}
						arbaran_area = {
							type = all
							OR = {
								owner = {
									is_part_of_hre = yes
								}
								country_or_non_sovereign_subject_holds = ROOT
							}
						}
						cestir_area = {
							type = all
							OR = {
								owner = {
									is_part_of_hre = yes
								}
								country_or_non_sovereign_subject_holds = ROOT
							}
						}
					}
				}
				AND = {
					damescrown_region = {
						type = all
						owner = { is_part_of_hre = yes }
					}
					arbaran_area = {
						type = all
						owner = { is_part_of_hre = yes }
					}
					cestir_area = {
						type = all
						owner = { is_part_of_hre = yes }
					}
				}
			}
		}

		effect = {
			if = {
				limit = {
					has_dlc = "The Cossacks"
				}
				custom_tooltip = istralore_imperial_border_effect_tooltip
				hidden_effect = {
					every_country = {
						limit = {
							is_part_of_hre = yes
							NOT = { is_rival = root }
							NOT = { root = { is_rival = prev } }
						}
						add_trust = {
							who = root
							value = 10
						}
					}
				}
				add_dip_power = 50
			}
			else = { add_dip_power = 200 }
		}
	}

}

A45_istralore_army = {
	slot = 4
	generic = no
	ai = yes
	potential = {
		tag = A45
	}
	has_country_shield = yes

	A45_rebuild_damerian_army = {
		icon = mission_build_up_to_force_limit
		required_missions = { }
		position = 1
		
		trigger = {
			army_size = 20
		}

		effect = {
			add_country_modifier = {
				name = "thriving_arms_industry"
				duration = 9125 #25 years
			}
		}
	}

	A45_military_advisor = {
		icon = a_show_of_strength
		required_missions = { A45_rebuild_damerian_army }
		position = 2
		
		trigger = {
			has_mil_advisor_2 = yes
		}

		effect = {
			add_mil_power = 25
			add_country_modifier = {
				name = "istralore_military_advisor"
				duration = 9125 #25 years
			}
		}
	}

	A45_higher_quality_army = {
		icon = establish_the_musketeers
		required_missions = { A45_military_advisor }
		position = 3
		
		trigger = {
			OR = {
				full_idea_group = quality_ideas
				full_idea_group = offensive_ideas
				full_idea_group = defensive_ideas
			}
		}

		effect = {
			add_country_modifier = {
				name = "istralore_army_quality"
				duration = 18250 #50 years
			}
		}
	}

	A45_secure_iron_supply = {
		icon = mission_rb_prospect_for_coal
		required_missions = { A45_higher_quality_army A45_reclaim_damerian_dales }
		position = 4
	
		provinces_to_highlight = {
			OR = {
				province_id = 276
				province_id = 277
			}
		}
		
		trigger = {
			276 = { has_production_building_trigger = yes }
			276 = { has_manufactory_trigger = yes }
			277 = { has_production_building_trigger = yes }
			277 = { has_manufactory_trigger = yes }
		}

		effect = {
			add_country_modifier = {
				name = "istralore_iron_supply"
				duration = 9125 #25 years
			}
		}
	}

	A45_istralari_banshees_mission = {
		icon = mission_cossack_cavalry
		required_missions = { A45_secure_iron_supply }
		position = 5
		
		trigger = {
			has_global_modifier_value = {
				which = land_morale
				value = 0.75
			}
			army_tradition = 50
		}

		effect = {
			add_country_modifier = {
				name = "istralari_banshees"
				duration = -1
			}
		}
	}

	A45_marshals_of_the_empire_mission = {
		icon = mission_conquer_romania
		required_missions = { A45_istralari_banshees_mission }
		position = 6
		
		trigger = {
			all_known_country = {
				if = {
					limit = { is_part_of_hre = yes }
					NOT = { army_size = ROOT }
				}
			}
		}

		effect = {
			add_country_modifier = {
				name = "istralore_empire_marshal"
				duration = -1
			}
		}
	}

	A45_imperial_army = {
		icon = mission_consolidate_the_state
		required_missions = { A45_marshals_of_the_empire_mission A45_damerias_legacy }
		position = 7
		
		trigger = {
			OR = { 
				hre_reform_passed = emperor_reichsstabilitaet
				hre_reform_passed = hofgericht
			}
			#hre_reform_level = 3
			if = {
				limit = {
					has_dlc = "Cradle of Civilization"
				}
				army_professionalism = 0.50
			}
			else = {
				army_tradition = 70
			}
		}

		effect = {
			custom_tooltip = istralore_imperial_levy_tooltip

			hidden_effect = {
				add_country_modifier = {
					name = "istralore_imperial_levy"
					duration = -1
				}
			}
		}
	}

	A45_istralari_commanders = {
		icon = mission_rb_the_education_acts
		required_missions = { A45_imperial_army }
		position = 8
		
		provinces_to_highlight = {
			OR = {
				province_id = 277
				province_id = 278
				province_id = 29
				province_id = 899
				province_id = 37
			}
		}
		
		trigger = {
			277  = {
				has_building = training_fields
				has_building = university
			}
			278 = { has_building = training_fields }
			29 = { has_building = training_fields }
			899 = { has_building = training_fields }
			37 = { has_building = training_fields }
			training_fields = 10
			university = 3
		}

		effect = {
			add_country_modifier = {
				name = "istralari_commanders_istralore"
				duration = -1
			}
			custom_tooltip = istralore_istralari_commanders_tooltip
			hidden_effect = {
				every_known_country = {
					if = {
						limit = {
							is_part_of_hre = yes
							NOT = { tag = A45 }
						}
						country_event = {
							id = flavor_istralore.10
						}
					}
				}
			}
		}
	}

}

A45_misc_moonhaven = {
	slot = 5
	generic = no
	ai = yes
	potential = {
		tag = A45
	}
	has_country_shield = yes

	A45_imperial_liberation = {
		icon = mission_cannons_firing
		required_missions = { }
		position = 1
		
		trigger = {
			is_in_war = {
				attacker_leader = ROOT
				casus_belli = cb_hre_attacked
			}
		}

		effect = {
			add_prestige = 10
			add_country_modifier = {
				name = "istralore_imperial_liberation"
				duration = 5475 #15 years
			}
		}
	}

	A45_ally_silverforge = {
		icon = mission_armoury
		required_missions = { }
		position = 2
		
		trigger = {
			OR = {
				alliance_with = A73
				tag = Z01
			}
		}
		
		effect = {
			add_country_modifier = {
				name = "istralore_dwarven_deals"
				duration = 9125 #25 years
			}
		}
	}

	A45_protect_dameshead = {
		icon = mission_arabian_sea_trade
		required_missions = { }
		position = 3
		
		trigger = {
			OR = {
				shipyard = 3
				grand_shipyard = 3
			}
			num_of_galley = 10
		}
		
		effect = {
			damespearl_area = {
				limit = {
					NOT = { is_core = ROOT }
					NOT = { owned_by = ROOT }
				}
				add_permanent_claim = ROOT
			}
			eastneck_area = {
				limit = {
					NOT = { is_core = ROOT }
					NOT = { owned_by = ROOT }
				}
				add_permanent_claim = ROOT
			}
		}
	}

	A45_prepare_navy = {
		icon = mission_galleys_in_port
		required_missions = { }
		position = 4
		
		trigger = {
			OR = {
				shipyard = 10
				grand_shipyard = 10
			}
			IF = {
				limit = {
					tag = A45
				}
				has_idea = A45_sealion_proclamation
			}
			ELSE = {
				drydock = 2
			}
		}
		
		effect = {
			add_country_modifier = {
				name = "istralore_extra_sailors"
				duration = 7300 #20 years
			}
		}
	}

	A45_lease_forests = {
		icon = mission_have_manufactories
		required_missions = { A45_prepare_navy }
		position = 5
		
		trigger = {
			OR = {
				AND = {
					alliance_with = A31
					A31 = { owns_core_province = 55 }
				}
				owns_or_non_sovereign_subject_of = 55
			}
			treasury = 150
		}
		
		effect = {
			IF = {
				limit = {
					OR = {
						alliance_with = A31
						tag = Z01
						A31 = { is_subject_of = A45 }
					}
				}
				add_country_modifier = {
					name = "istralore_moonhaven_forests"
					duration = 5475 #15 years
				}
				add_treasury = -150
				A31 = {
					add_treasury = 150
				}
			}
		}
	}

	A45_moonhaven_admiral = {
		icon = control_coromandel
		required_missions = { A45_lease_forests }
		position = 6
		
		trigger = {
			OR = {
				AND = {
					OR = {
						alliance_with = A31
						A31 = { is_subject_of = A45 }
					}
					treasury = 100
					dip_power = 50
				}
				A31 = { exists = no }
			}
		}
		
		effect = {
			IF = {
				limit = {
					OR = {
						A31 = { exists = yes }
						tag = Z01
					}
				}
				add_treasury = -100
				add_dip_power = -50
				country_event = {
					id = flavor_istralore.2
				}
				A31 = {
					add_treasury = 100
				}
			}
		}
	}

	A45_construct_sealion_navy = {
		icon = mission_fleet
		required_missions = { A45_moonhaven_admiral }
		position = 7
		
		trigger = {
			num_of_light_ship = 30
			num_of_heavy_ship = 20
		}
		
		effect = {
			add_country_modifier = {
				name = "naval_enthusiasm_mission"
				duration = 9125 #25 years
			}
			custom_tooltip = istralore_estadha_mission_tooltip
			set_country_flag = istralore_remade_estadha
		}
	}

}