
country_decisions = {
	investigate_rumors = {
		major = yes
		potential = {
			has_country_flag = investigate_strange_shit
			NOT = { has_country_flag = investigating }
			NOT = { has_any_disaster = yes }
		}
		
		provinces_to_highlight = {
			has_province_modifier = strange_shit
			owned_by = ROOT
		}
		
		allow = {
			any_owned_province = {
				has_province_modifier = strange_shit
				owned_by = ROOT
				controlled_by = ROOT
				num_of_units_in_province = {
					who = ROOT
					amount = 20
				}
			}
		}
		
		effect = {
			add_treasury = -80
			random_owned_province = {
				limit = {
					has_province_modifier = strange_shit
					owned_by = ROOT
					controlled_by = ROOT
					num_of_units_in_province = {
						who = ROOT
						amount = 20
					}
				}
				add_province_modifier = {
					name = investigating_strange_shit
					duration = -1
				}
				hidden_effect = {
					province_event = { id = diggy_fallen.4 days = 365 random = 60 }
				}
			}
			hidden_effect = { 
				set_country_flag = investigating 
			}
		}
		
		ai_will_do = {
			factor = 0
		}
	}
	
	the_underempire = {
		major = yes
		potential = {
			religion = runefather_worship
		}
		
		provinces_to_highlight = {
			has_province_flag = runefather_maw
		}
		
		allow = {
			custom_trigger_tooltip = {
				tooltip = open_link_tooltip
				isolationism = 5
			}
			
			any_owned_province = {
				has_great_project = { type =  runefather_maw }
				# runelink_upkeep_maintained = yes
				custom_trigger_tooltip = {
					tooltip = runelink_upkeep_tooltip
					if = {
						limit = { has_province_modifier = runelink_upkeep_1 }
						development = 3
					}
					else_if = {
						limit = { has_province_modifier = runelink_upkeep_2 }
						development = 6
					}
					else_if = {
						limit = { has_province_modifier = runelink_upkeep_3 }
						development = 9
					}
					else_if = {
						limit = { has_province_modifier = runelink_upkeep_4 }
						development = 12
					}
					else_if = {
						limit = { has_province_modifier = runelink_upkeep_5 }
						development = 15
					}
					else_if = {
						limit = { has_province_modifier = runelink_upkeep_6 }
						development = 18
					}
					else_if = {
						limit = { has_province_modifier = runelink_upkeep_7 }
						development = 21
					}
					else_if = {
						limit = { has_province_modifier = runelink_upkeep_8 }
						development = 24
					}
					else_if = {
						limit = { has_province_modifier = runelink_upkeep_9 }
						development = 27
					}
					else_if = {
						limit = { has_province_modifier = runelink_upkeep_10 }
						development = 30
					}
					else_if = {
						limit = { has_province_modifier = runelink_upkeep_11 }
						development = 33
					}
					else_if = {
						limit = { has_province_modifier = runelink_upkeep_12 }
						development = 36
					}
					else_if = {
						limit = { has_province_modifier = runelink_upkeep_13 }
						development = 39
					}
					else_if = {
						limit = { has_province_modifier = runelink_upkeep_14 }
						development = 42
					}
					else_if = {
						limit = { has_province_modifier = runelink_upkeep_15 }
						development = 45
					}
					else_if = {
						limit = { has_province_modifier = runelink_upkeep_16 }
						development = 48
					}
					else_if = {
						limit = { has_province_modifier = runelink_upkeep_17 }
						development = 51
					}
					else_if = {
						limit = { has_province_modifier = runelink_upkeep_18 }
						development = 54
					}
					else_if = {
						limit = { has_province_modifier = runelink_upkeep_19 }
						development = 57
					}
					else_if = {
						limit = { has_province_modifier = runelink_upkeep_20 }
						development = 60
					}
					else_if = {
						limit = { has_province_modifier = runelink_upkeep_21 }
						development = 63
					}
					else_if = {
						limit = { has_province_modifier = runelink_upkeep_22 }
						development = 66
					}
					else_if = {
						limit = { has_province_modifier = runelink_upkeep_23 }
						development = 69
					}
					else_if = {
						limit = { has_province_modifier = runelink_upkeep_24 }
						development = 72
					}
					else_if = {
						limit = { has_province_modifier = runelink_upkeep_25 }
						development = 75
					}
					else_if = {
						limit = { has_province_modifier = runelink_upkeep_26 }
						development = 78
					}
					else_if = {
						limit = { has_province_modifier = runelink_upkeep_27 }
						development = 81
					}
					else_if = {
						limit = { has_province_modifier = runelink_upkeep_28 }
						development = 84
					}
					else_if = {
						limit = { has_province_modifier = runelink_upkeep_29 }
						development = 87
					}
					else_if = {
						limit = { has_province_modifier = runelink_upkeep_30 }
						development = 90
					}
					else_if = {
						limit = { has_province_modifier = runelink_upkeep_31 }
						development = 93
					}
					else_if = {
						limit = { has_province_modifier = runelink_upkeep_32 }
						development = 96
					}
					else_if = {
						limit = { has_province_modifier = runelink_upkeep_33 }
						development = 99
					}
					else_if = {
						limit = { has_province_modifier = runelink_upkeep_34 }
						development = 102
					}
					else_if = {
						limit = { has_province_modifier = runelink_upkeep_35 }
						development = 105
					}
				}
			}
			NOT = { has_country_modifier = runelink_timer }
		}
		
		effect = {
			country_event = { id = diggy_fallen.13 }
		}
		
		ai_will_do = {
			factor = 0
		}
	}
}
